<?xml version="1.0" encoding="utf-8"?>
<!-- Generator: Adobe Illustrator 21.0.2, SVG Export Plug-In . SVG Version: 6.00 Build 0)  -->
<svg version="1.1" id="Capa_1" xmlns="http://www.w3.org/2000/svg" xmlns:xlink="http://www.w3.org/1999/xlink" x="0px" y="0px"
	 viewBox="0 0 512 481" style="enable-background:new 0 0 512 481;" xml:space="preserve">
<style type="text/css">
	.st0{fill:#FEDBAB;}
	.st1{fill:#FEC478;}
	.st2{fill:#DA0115;}
	.st3{fill:#CC051D;}
	.st4{fill:#AA0420;}
	.st5{fill:#C1021A;}
</style>
<g>
</g>
<g>
</g>
<g>
</g>
<g>
</g>
<g>
</g>
<g>
</g>
<g>
</g>
<g>
</g>
<g>
</g>
<g>
</g>
<g>
</g>
<g>
</g>
<g>
</g>
<g>
</g>
<g>
</g>
<g>
</g>
<g>
</g>
<g>
</g>
<g>
</g>
<g>
</g>
<g>
</g>
<g>
</g>
<g>
</g>
<g>
</g>
<g>
</g>
<g>
</g>
<g>
</g>
<g>
</g>
<g>
</g>
<g>
</g>
<path class="st0" d="M480.5,271l-80.7,116.9c-15.6,20.9-40.6,33.4-66.8,33.4H94.5L80,274.9l14.5-13.1c21.2-18.6,35.1-31.5,62.3-37.9
	c32.6-7.5,64.9,1.7,86.4,21.2c5.6,4.7,8.9,9.2,15.9,9.2h3.3c64.6,0,6.2,0,70.5,0c15.3,0,27.8,12.5,27.8,27.8S348.3,310,333,310
	h-56.6c-7.8,0-13.9,6.1-13.9,13.9c0,7.8,6.1,13.9,13.9,13.9h65.8c5.3,0,15.3-3.3,20.6-8.9l75.2-93.5c9.5-10.3,25.3-12,36.7-3.6
	C487.2,241,489.7,258.8,480.5,271z"/>
<g>
	<path class="st1" d="M262.4,323.9v-69.6c64.6,0,6.2,0,70.5,0c15.3,0,27.8,12.5,27.8,27.8S348.3,310,333,310h-56.6
		C268.6,310,262.4,316.1,262.4,323.9z"/>
	<path class="st1" d="M480.5,271l-80.7,116.9c-15.6,20.9-40.6,33.4-66.8,33.4h-70.5v-97.4c0,7.8,6.1,13.9,13.9,13.9h65.8
		c5.3,0,15.3-3.3,20.6-8.9l75.2-93.5c9.5-10.3,25.3-12,36.7-3.6C487.2,241,489.7,258.8,480.5,271z"/>
</g>
<path class="st2" d="M96,469.3l-83.5-167c-3.4-6.9-0.7-15.2,6.2-18.7l30.8-15.4c20.6-10.3,45.7-1.9,56,18.7l58.6,117.2
	c10.3,20.6,2,45.7-18.7,56l-30.8,15.4C107.7,479,99.4,476.1,96,469.3z"/>
<path class="st3" d="M262.4,85.5c-45.9,0-84.4,38.5-84.4,84.4v14.8c0,7.8,6.1,13.9,13.9,13.9h141c7.8,0,13.9-6.1,13.9-13.9v-14.8
	C346.9,124,308.4,85.5,262.4,85.5z"/>
<path class="st4" d="M346.9,169.9v14.8c0,7.8-6.1,13.9-13.9,13.9h-70.5V85.5C308.4,85.5,346.9,124,346.9,169.9z"/>
<path class="st2" d="M262.4,2c-30.6,0-56.6,25.1-56.6,55.7s26,55.7,56.6,55.7S319,88.3,319,57.6S293.1,2,262.4,2z"/>
<path class="st5" d="M319,57.6c0,30.6-26,55.7-56.6,55.7V2C293.1,2,319,27,319,57.6z"/>
<g>
</g>
<g>
</g>
<g>
</g>
<g>
</g>
<g>
</g>
<g>
</g>
<g>
</g>
<g>
</g>
<g>
</g>
<g>
</g>
<g>
</g>
<g>
</g>
<g>
</g>
<g>
</g>
<g>
</g>
</svg>
